FIBs	Test1	Test2	Test3	Test4	Test5	Test6	Test7	Test8	Test9	Test10
10	4	5	4	5	4	5	4	5	5	4
1000	7	4	5	5	4	4	5	4	4	4
2000	19	14	15	14	15	14	14	14	15	15
4000	22	25	24	25	24	25	25	24	25	25
6000	28	60	31	57						